{
    "apiVersion": "v1",
    "metadata": {
        "kind": "BigDataCluster",
        "name": "bdc3"
    },
    "spec": {
        "resources": {
            "nmnode-0": {
                "spec": {
                    "replicas": "1"
                }
            },
            "sparkhead": {
                "spec": {
                    "replicas": "1"
                }
            },
            "zookeeper": {
                "spec": {
                    "replicas": "1"
                }
            },
            "gateway": {
                "spec": {
                    "replicas": 1,
                    "endpoints": [
                        {
                            "name": "Knox",
                            "dnsName": "bdc3.bdc-gateway.dr-foster.lan",
                            "serviceType": "NodePort",
                            "port": "30445"
                        }
                    ]
                }
            },
            "appproxy": {
                "spec": {
                    "replicas": 1,
                    "endpoints": [
                        {
                            "name": "AppServiceProxy",
                            "dnsName": "bdc3.bdc-appproxy.dr-foster.lan",
                            "serviceType": "NodePort",
                            "port": "30781"
                        }
                    ]
                }
            },
            "master": {
                "metadata": {
                    "kind": "Pool",
                    "name": "default"
                },
                "spec": {
                    "type": "Master",
                    "replicas": "1",
                    "endpoints": [
                        {
                            "name": "Master",
                            "dnsName": "bdc3.bdc-sql.dr-foster.lan",
                            "serviceType": "NodePort",
                            "port": "31435"
                        },
                        {
                            "name": "MasterSecondary",
                            "dnsName": "bdc3.bdc-sqlro.dr-foster.lan",
                            "serviceType": "NodePort",
                            "port": "31438"
                        }
                    ],
                    "settings": {
                        "sql": {
                            "hadr.enabled": "false"
                        }
                    },
                    "volumes": {
                        "name": "bdcbackups",
                        "hostPath": {
                            "path": "/mnt/bdc_backups"
                        }
                    },
                    "volumemounts": {
                        "mountPath": "/backups",
                        "name": "bdcbackups"
                    },
                    "storage": {
                        "data": {
                            "className": "pure-block-expandable",
                            "accessMode": "ReadWriteOnce",
                            "size": "100Gi"
                        },
                        "logs": {
                            "className": "pure-block-expandable",
                            "accessMode": "ReadWriteOnce",
                            "size": "100Gi"
                        }
                    }
                }
            },
            "compute-0": {
                "metadata": {
                    "kind": "Pool",
                    "name": "default"
                },
                "spec": {
                    "type": "Compute",
                    "replicas": "1",
                    "storage": {
                        "data": {
                            "className": "pure-block-expandable",
                            "accessMode": "ReadWriteOnce",
                            "size": "100Gi"
                        },
                        "logs": {
                            "className": "pure-block-expandable",
                            "accessMode": "ReadWriteOnce",
                            "size": "100Gi"
                        }
                    }
                }
            },
            "data-0": {
                "metadata": {
                    "kind": "Pool",
                    "name": "default"
                },
                "spec": {
                    "type": "Data",
                    "replicas": "1",
                    "storage": {
                        "data": {
                            "className": "pure-block-expandable",
                            "accessMode": "ReadWriteOnce",
                            "size": "100Gi"
                        },
                        "logs": {
                            "className": "pure-block-expandable",
                            "accessMode": "ReadWriteOnce",
                            "size": "100Gi"
                        }
                    }
                }
            },
            "storage-0": {
                "metadata": {
                    "kind": "Pool",
                    "name": "default"
                },
                "spec": {
                    "type": "Storage",
                    "replicas": "1",
                    "settings": {
                        "spark": {
                            "includeSpark": "true"
                        }
                    },
                    "storage": {
                        "data": {
                            "className": "pure-block-expandable",
                            "accessMode": "ReadWriteOnce",
                            "size": "100Gi"
                        },
                        "logs": {
                            "className": "pure-block-expandable",
                            "accessMode": "ReadWriteOnce",
                            "size": "100Gi"
                        }
                    }
                }
            }
        },
        "services": {
            "sql": {
                "resources": [
                    "master",
                    "compute-0",
                    "data-0",
                    "storage-0"
                ]
            },
            "hdfs": {
                "resources": [
                    "nmnode-0",
                    "zookeeper",
                    "storage-0",
                    "sparkhead"
                ],
                "settings": {
                    "hdfs-site.dfs.replication": "1"
                }
            },
            "spark": {
                "resources": [
                    "sparkhead",
                    "storage-0"
                ],
                "settings": {
                    "spark-defaults-conf.spark.driver.cores": "1",
                    "spark-defaults-conf.spark.driver.memory": "1664m",
                    "spark-defaults-conf.spark.driver.memoryOverhead": "384",
                    "spark-defaults-conf.spark.executor.instances": "1",
                    "spark-defaults-conf.spark.executor.cores": "2",
                    "spark-defaults-conf.spark.executor.memory": "3712m",
                    "spark-defaults-conf.spark.executor.memoryOverhead": "384",
                    "yarn-site.yarn.nodemanager.resource.memory-mb": "12288",
                    "yarn-site.yarn.nodemanager.resource.cpu-vcores": "6",
                    "yarn-site.yarn.scheduler.maximum-allocation-mb": "12288",
                    "yarn-site.yarn.scheduler.maximum-allocation-vcores": "6",
                    "yarn-site.yarn.scheduler.capacity.maximum-am-resource-percent": "0.34"
                }
            }
        }
    }
}