{
  "patch": [
    {
      "op": "replace",
      "path": "spec.docker.imageTag",
      "value": "2019-CU5-ubuntu-16.04"
    },
    {
      "op": "replace",
      "path": "security.activeDirectory",
      "value": {
        "ouDistinguishedName": "OU=BDC3,OU=Big Data Clusters,OU=Services,DC=dr-foster,DC=lan",
        "dnsIpAddresses": [
          "172.20.1.10",
          "10.1.1.51",
		  "10.4.5.36",
		  "10.5.5.1"
        ],
        "domainControllerFullyQualifiedDns": [
          "dc1.dr-foster.lan",
          "dc2.dr-foster.lan",
          "dc3.dr-foster.lan",
		  "nottdc01.dr-foster.lan"
        ],
        "subdomain": "bdc3",
        "accountPrefix": "bdc3",
        "domainDnsName": "dr-foster.lan",
        "clusterAdmins": [
          "BDC3_Cluster_Admins"
        ],
        "clusterUsers": [
          "BDC3_Users"
        ],
        "realm": "dr-foster.lan"
      }
    },
    {
      "op": "replace",
      "path": "spec.endpoints[0].dnsName",
      "value": "bdc3.bdc-controller.dr-foster.lan"
    },
    {
      "op": "replace",
      "path": "spec.endpoints[0].port",
      "value": "30082"
    },
    {
      "op": "replace",
      "path": "spec.endpoints[1].dnsName",
      "value": "bdc3.bdc-serviceproxy.dr-foster.lan"
    },
    {
      "op": "replace",
      "path": "spec.endpoints[1].port",
      "value": "30780"
    },
    {
      "op": "replace",
      "path": "spec.storage.data.size",
      "value": "100Gi"
    },
    {
      "op": "replace",
      "path": "spec.storage.logs.size",
      "value": "100Gi"
    },
    {
      "op": "replace",
      "path": "spec.storage.data.className",
      "value": "pure-block-expandable"
    },
    {
      "op": "replace",
      "path": "spec.storage.logs.className",
      "value": "pure-block-expandable"
    }
  ]
}